<?xml version="1.0" encoding="UTF-8"?>
<svg width="70px" height="100px" viewBox="0 0 70 100" version="1.1" xmlns="http://www.w3.org/2000/svg" xmlns:xlink="http://www.w3.org/1999/xlink">
    <!-- Generator: Sketch 50.2 (55047) - http://www.bohemiancoding.com/sketch -->
    <title>148855</title>
    <desc>Created with Sketch.</desc>
    <defs></defs>
    <g id="Page-1" stroke="none" stroke-width="1" fill="none" fill-rule="evenodd">
        <g id="Order-Detail" transform="translate(-1040.000000, -293.000000)" fill-rule="nonzero">
            <g id="Group-4" transform="translate(890.000000, 183.000000)">
                <g id="148855" transform="translate(150.000000, 110.000000)">
                    <path d="M54.5521333,36.74704 C57.9546667,34.46764 60,30.63268 60,26.52628 L60,7 L8,7 L8,26.52628 C8,30.63268 10.0453333,34.46764 13.4478667,36.74704 L29.6008,48.65386 C30.1866667,49.08538 30.5333333,49.77094 30.5333333,50.5 C30.5333333,51.22906 30.1866667,51.91462 29.6025333,52.34614 L13.4496,64.25296 C10.0453333,66.53236 8,70.36732 8,74.47372 L8,94 L60,94 L60,74.47372 C60,70.36732 57.9546667,66.53236 54.5521333,64.25296 L38.3992,52.34614 C37.8133333,51.91462 37.4666667,51.22906 37.4666667,50.5 C37.4666667,49.77094 37.8133333,49.08538 38.3974667,48.65386 L54.5521333,36.74704 Z" id="Shape" fill-opacity="0.52137115" fill="#E6E6E6"></path>
                    <rect id="Rectangle-path" fill="#BBBBBB" x="0" y="0" width="70" height="7"></rect>
                    <path d="M52.8343819,32.4931266 C54.8152994,31.1813275 55.9982501,28.9868873 55.9982501,26.6256489 C55.9982501,24.356497 54.4425649,22.3775047 52.2254073,21.8267228 L25.8837548,15.2885769 C19.8482563,13.7891297 14,18.322221 14,24.500708 L14,26.6256489 C14,28.9868873 15.1829507,31.1813275 17.1638682,32.4931266 L33.249198,44.2141822 L33.249198,71.8001887 C33.249198,78.1072494 26.6624724,82.2876318 20.8982126,79.6379713 C17.7938419,78.2114983 14.0349985,80.3225393 14.0017499,83.7193172 C14.0017499,83.743642 14.0017499,83.7662293 14.0017499,83.790554 L14.0017499,94 L56,94 L56,74.5002362 C56,74.4759114 56,74.4533241 56,74.4289994 C55.9667514,71.0739211 52.6943877,68.6570832 49.3660264,69.2321898 L45.7804258,69.852471 C41.0643723,70.6673502 36.7490521,67.0638119 36.7490521,62.3135353 L36.7490521,44.2141822 L52.8343819,32.4931266 Z" id="Shape" fill="#E6E6E6"></path>
                    <rect id="Rectangle-path" fill="#BBBBBB" x="0" y="93" width="70" height="7"></rect>
                </g>
            </g>
        </g>
    </g>
</svg>