<?xml version="1.0" encoding="UTF-8"?>
<svg width="200px" height="41px" viewBox="0 0 200 41" version="1.1" xmlns="http://www.w3.org/2000/svg" xmlns:xlink="http://www.w3.org/1999/xlink">
    <!-- Generator: sketchtool 49.3 (51167) - http://www.bohemiancoding.com/sketch -->
    <title>800A6E05-E3D1-404E-8579-849158A6BAB1</title>
    <desc>Created with sketchtool.</desc>
    <defs></defs>
    <g id="Page-1" stroke="none" stroke-width="1" fill="none" fill-rule="evenodd">
        <g id="Logos" transform="translate(-468.000000, -2193.000000)">
            <g id="logo" transform="translate(468.000000, 2193.000000)">
                <path d="M20.3381489,1.08534015 L34.7289535,9.10596515 C35.9961417,9.81222459 36.7816092,11.1492255 36.7816092,12.5999386 L36.7816092,28.4000614 C36.7816092,29.8507745 35.9961417,31.1877754 34.7289535,31.8940349 L20.3381489,39.9146599 C19.1275816,40.5893619 17.6540276,40.5893619 16.4434603,39.9146599 L2.05265574,31.8940349 C0.785467514,31.1877754 2.5313085e-14,29.8507745 2.39808173e-14,28.4000614 L1.95399252e-14,12.5999386 C1.86517468e-14,11.1492255 0.785467514,9.81222459 2.05265574,9.10596515 L16.4434603,1.08534015 C17.6540276,0.410638061 19.1275816,0.410638061 20.3381489,1.08534015 Z" id="Polygon" fill="#FFFFFF"></path>
                <path d="M46.4809195,26.4222222 L46.4809195,15.0570222 L53.3995402,15.0570222 L53.3995402,16.4182222 L48.0864368,16.4182222 L48.0864368,19.8458222 L52.8036782,19.8458222 L52.8036782,21.1906222 L48.0864368,21.1906222 L48.0864368,26.4222222 L46.4809195,26.4222222 Z M56.8091954,26.4222222 L55.2698851,26.4222222 L55.2698851,17.8942222 L56.8091954,17.8942222 L56.8091954,26.4222222 Z M56.0312644,16.3526222 C55.7554009,16.3526222 55.5209205,16.2624231 55.3278161,16.0820222 C55.1347117,15.9016213 55.0381609,15.6583571 55.0381609,15.3522222 C55.0381609,15.0460874 55.1347117,14.8028231 55.3278161,14.6224222 C55.5209205,14.4420213 55.7554009,14.3518222 56.0312644,14.3518222 C56.3071278,14.3518222 56.5416082,14.4420213 56.7347126,14.6224222 C56.9278171,14.8028231 57.0243678,15.0460874 57.0243678,15.3522222 C57.0243678,15.6583571 56.9278171,15.9016213 56.7347126,16.0820222 C56.5416082,16.2624231 56.3071278,16.3526222 56.0312644,16.3526222 Z M62.6354023,17.7138222 C62.7678168,17.7138222 62.9195394,17.7220221 63.0905747,17.7384222 C63.2616101,17.7548223 63.4298842,17.7766888 63.5954023,17.8040222 C63.7609204,17.8313557 63.912643,17.8586888 64.0505747,17.8860222 C64.1885064,17.9133557 64.2905744,17.9379554 64.3567816,17.9598222 L64.091954,19.2882222 C63.9705741,19.2444887 63.7691968,19.1925559 63.4878161,19.1324222 C63.2064354,19.0722886 62.8450597,19.0422222 62.4036782,19.0422222 C62.1167802,19.0422222 61.8326451,19.0722886 61.5512644,19.1324222 C61.2698837,19.1925559 61.0850579,19.2335554 60.9967816,19.2554222 L60.9967816,26.4222222 L59.4574713,26.4222222 L59.4574713,18.2550222 C59.821611,18.1238216 60.2740203,18.0008228 60.8147126,17.8860222 C61.355405,17.7712216 61.9622955,17.7138222 62.6354023,17.7138222 Z M65.8464368,18.1402222 C66.199542,18.0527551 66.6657442,17.9598227 67.2450575,17.8614222 C67.8243707,17.7630217 68.4947088,17.7138222 69.256092,17.7138222 C69.8078189,17.7138222 70.2712625,17.7876215 70.6464368,17.9352222 C71.0216111,18.082823 71.3360907,18.2987541 71.5898851,18.5830222 C71.6671268,18.5283553 71.7885049,18.4518227 71.954023,18.3534222 C72.1195411,18.2550217 72.3236769,18.159356 72.5664368,18.0664222 C72.8091966,17.9734884 73.0795387,17.8914892 73.3774713,17.8204222 C73.6754038,17.7493552 73.9954006,17.7138222 74.3374713,17.7138222 C74.9995435,17.7138222 75.5402278,17.8094879 75.9595402,18.0008222 C76.3788527,18.1921565 76.7071253,18.4627538 76.9443678,18.8126222 C77.1816104,19.1624906 77.3416088,19.5779532 77.4243678,20.0590222 C77.5071269,20.5400913 77.5485057,21.064886 77.5485057,21.6334222 L77.5485057,26.4222222 L76.0091954,26.4222222 L76.0091954,21.9614222 C76.0091954,21.4584864 75.9843681,21.026624 75.9347126,20.6658222 C75.8850572,20.3050204 75.7912651,20.0043568 75.6533333,19.7638222 C75.5154016,19.5232877 75.3278173,19.3456228 75.0905747,19.2308222 C74.8533321,19.1160216 74.5471283,19.0586222 74.171954,19.0586222 C73.6533307,19.0586222 73.2257488,19.1269549 72.8891954,19.2636222 C72.552642,19.4002896 72.3236788,19.5232883 72.2022989,19.6326222 C72.2905752,19.9168903 72.3567814,20.2284872 72.4009195,20.5674222 C72.4450577,20.9063573 72.4671264,21.261687 72.4671264,21.6334222 L72.4671264,26.4222222 L70.9278161,26.4222222 L70.9278161,21.9614222 C70.9278161,21.4584864 70.9002302,21.026624 70.8450575,20.6658222 C70.7898848,20.3050204 70.693334,20.0043568 70.5554023,19.7638222 C70.4174706,19.5232877 70.2298862,19.3456228 69.9926437,19.2308222 C69.7554011,19.1160216 69.4547145,19.0586222 69.0905747,19.0586222 C68.9360912,19.0586222 68.7705756,19.0640888 68.594023,19.0750222 C68.4174704,19.0859556 68.2491962,19.0996221 68.0891954,19.1160222 C67.9291946,19.1324223 67.7829892,19.1515554 67.6505747,19.1734222 C67.5181603,19.195289 67.4298853,19.2116888 67.3857471,19.2226222 L67.3857471,26.4222222 L65.8464368,26.4222222 L65.8464368,18.1402222 Z M79.6174713,22.1746222 C79.6174713,21.4202185 79.727815,20.7614917 79.9485057,20.1984222 C80.1691965,19.6353527 80.4616074,19.1679574 80.8257471,18.7962222 C81.1898869,18.424487 81.609193,18.1456898 82.0836782,17.9598222 C82.5581633,17.7739546 83.0436757,17.6810222 83.5402299,17.6810222 C84.6988564,17.6810222 85.5871233,18.0390853 86.2050575,18.7552222 C86.8229916,19.4713591 87.131954,20.5619482 87.131954,22.0270222 L87.131954,22.2812222 C87.131954,22.3850894 87.1264368,22.4807551 87.1154023,22.5682222 L81.2229885,22.5682222 C81.2891957,23.4538267 81.5485035,24.1262199 82.0009195,24.5854222 C82.4533356,25.0446245 83.1595354,25.2742222 84.1195402,25.2742222 C84.6602326,25.2742222 85.1154005,25.227756 85.4850575,25.1348222 C85.8547145,25.0418884 86.1333324,24.9516893 86.3209195,24.8642222 L86.536092,26.1434222 C86.3485048,26.2418227 86.0202322,26.3456883 85.5512644,26.4550222 C85.0822965,26.5643561 84.549888,26.6190222 83.954023,26.6190222 C83.2036744,26.6190222 82.555405,26.5069567 82.0091954,26.2828222 C81.4629858,26.0586878 81.0133351,25.7498242 80.6602299,25.3562222 C80.3071247,24.9626203 80.0450583,24.4952249 79.874023,23.9540222 C79.7029877,23.4128195 79.6174713,22.8196921 79.6174713,22.1746222 Z M85.5264368,21.3382222 C85.5374713,20.6494188 85.36368,20.0836244 85.0050575,19.6408222 C84.646435,19.19802 84.1526468,18.9766222 83.5236782,18.9766222 C83.1705729,18.9766222 82.8588519,19.0449549 82.5885057,19.1816222 C82.3181596,19.3182896 82.0891963,19.4959545 81.9016092,19.7146222 C81.7140221,19.93329 81.5678166,20.1847541 81.4629885,20.4690222 C81.3581604,20.7532903 81.2891956,21.0430207 81.256092,21.3382222 L85.5264368,21.3382222 Z M89.3498851,18.1402222 C89.7029903,18.0527551 90.1719511,17.9598227 90.7567816,17.8614222 C91.3416121,17.7630217 92.0147088,17.7138222 92.776092,17.7138222 C93.4602333,17.7138222 94.0285035,17.8094879 94.4809195,18.0008222 C94.9333356,18.1921565 95.2947113,18.4600205 95.5650575,18.8044222 C95.8354037,19.1488239 96.0257466,19.5615532 96.136092,20.0426222 C96.2464373,20.5236913 96.3016092,21.0539527 96.3016092,21.6334222 L96.3016092,26.4222222 L94.7622989,26.4222222 L94.7622989,21.9614222 C94.7622989,21.4366196 94.7264371,20.9883574 94.6547126,20.6166222 C94.5829881,20.244887 94.4643686,19.9442234 94.2988506,19.7146222 C94.1333325,19.4850211 93.9126451,19.3182894 93.6367816,19.2144222 C93.3609182,19.110555 93.0188526,19.0586222 92.6105747,19.0586222 C92.4450566,19.0586222 92.2740239,19.0640888 92.0974713,19.0750222 C91.9209187,19.0859556 91.7526445,19.0996221 91.5926437,19.1160222 C91.4326429,19.1324223 91.289196,19.1515554 91.1622989,19.1734222 C91.0354017,19.195289 90.9443681,19.2116888 90.8891954,19.2226222 L90.8891954,26.4222222 L89.3498851,26.4222222 L89.3498851,18.1402222 Z M101.763678,25.3234222 C102.127818,25.3234222 102.450573,25.3152223 102.731954,25.2988222 C103.013335,25.2824221 103.247815,25.2523558 103.435402,25.2086222 L103.435402,22.6666222 C103.325057,22.6119553 103.145748,22.5654891 102.897471,22.5272222 C102.649194,22.4889554 102.348508,22.4698222 101.995402,22.4698222 C101.763677,22.4698222 101.518162,22.4862221 101.258851,22.5190222 C100.999539,22.5518224 100.7623,22.620155 100.547126,22.7240222 C100.331953,22.8278894 100.152644,22.9700213 100.009195,23.1504222 C99.8657464,23.3308231 99.794023,23.5686207 99.794023,23.8638222 C99.794023,24.4104916 99.9705729,24.7904212 100.323678,25.0036222 C100.676783,25.2168233 101.156779,25.3234222 101.763678,25.3234222 Z M101.631264,17.6810222 C102.249198,17.6810222 102.770573,17.7602881 103.195402,17.9188222 C103.620232,18.0773563 103.962298,18.3014874 104.221609,18.5912222 C104.480921,18.880957 104.665747,19.2253536 104.776092,19.6244222 C104.886437,20.0234909 104.941609,20.4635532 104.941609,20.9446222 L104.941609,26.2746222 C104.809195,26.296489 104.624369,26.3265554 104.387126,26.3648222 C104.149884,26.4030891 103.8823,26.4386221 103.584368,26.4714222 C103.286435,26.5042224 102.96368,26.5342888 102.616092,26.5616222 C102.268504,26.5889557 101.92368,26.6026222 101.581609,26.6026222 C101.09609,26.6026222 100.649197,26.5534227 100.24092,26.4550222 C99.8326416,26.3566217 99.4795417,26.2008233 99.1816092,25.9876222 C98.8836767,25.7744212 98.6519549,25.4928906 98.4864368,25.1430222 C98.3209187,24.7931538 98.2381609,24.3722247 98.2381609,23.8802222 C98.2381609,23.4100865 98.3347117,23.0055573 98.5278161,22.6666222 C98.7209205,22.3276872 98.9829869,22.0543566 99.314023,21.8466222 C99.6450591,21.6388879 100.031262,21.4858227 100.472644,21.3874222 C100.914025,21.2890217 101.377469,21.2398222 101.862989,21.2398222 C102.017472,21.2398222 102.17747,21.2480221 102.342989,21.2644222 C102.508507,21.2808223 102.665746,21.3026888 102.814713,21.3300222 C102.963679,21.3573557 103.093333,21.3819554 103.203678,21.4038222 C103.314024,21.425689 103.391264,21.4420888 103.435402,21.4530222 L103.435402,21.0266222 C103.435402,20.7751543 103.407816,20.5264235 103.352644,20.2804222 C103.297471,20.034421 103.198162,19.8157565 103.054713,19.6244222 C102.911264,19.4330879 102.715404,19.2800228 102.467126,19.1652222 C102.218849,19.0504216 101.896094,18.9930222 101.498851,18.9930222 C100.991262,18.9930222 100.547128,19.0285552 100.166437,19.0996222 C99.7857452,19.1706892 99.5016101,19.2444885 99.314023,19.3210222 L99.131954,18.0582222 C99.3305757,17.9707551 99.6616069,17.8860226 100.125057,17.8040222 C100.588508,17.7220218 101.090572,17.6810222 101.631264,17.6810222 Z M113.051954,19.6982222 C112.864367,19.5451548 112.594025,19.3975563 112.24092,19.2554222 C111.887814,19.1132882 111.501611,19.0422222 111.082299,19.0422222 C110.640917,19.0422222 110.26299,19.1214881 109.948506,19.2800222 C109.634021,19.4385563 109.377472,19.6572208 109.178851,19.9360222 C108.980229,20.2148236 108.836782,20.5455536 108.748506,20.9282222 C108.660229,21.3108908 108.616092,21.7208867 108.616092,22.1582222 C108.616092,23.1531605 108.864365,23.9212195 109.36092,24.4624222 C109.857474,25.0036249 110.519536,25.2742222 111.347126,25.2742222 C111.766439,25.2742222 112.11678,25.2550891 112.398161,25.2168222 C112.679542,25.1785554 112.89747,25.1375558 113.051954,25.0938222 L113.051954,19.6982222 Z M113.051954,13.9582222 L114.591264,13.6958222 L114.591264,26.1762222 C114.238159,26.2746227 113.78575,26.3730217 113.234023,26.4714222 C112.682296,26.5698227 112.04782,26.6190222 111.330575,26.6190222 C110.668502,26.6190222 110.072646,26.5151566 109.542989,26.3074222 C109.013331,26.0996879 108.560921,25.8044908 108.185747,25.4218222 C107.810573,25.0391536 107.520921,24.5717583 107.316782,24.0196222 C107.112643,23.4674861 107.010575,22.8470257 107.010575,22.1582222 C107.010575,21.5022189 107.096091,20.9008916 107.267126,20.3542222 C107.438162,19.8075528 107.689194,19.3374242 108.02023,18.9438222 C108.351266,18.5502203 108.756779,18.24409 109.236782,18.0254222 C109.716784,17.8067545 110.265744,17.6974222 110.883678,17.6974222 C111.380232,17.6974222 111.818849,17.7630216 112.19954,17.8942222 C112.580232,18.0254229 112.864367,18.151155 113.051954,18.2714222 L113.051954,13.9582222 Z M117.23954,18.1402222 C117.592645,18.0527551 118.058848,17.9598227 118.638161,17.8614222 C119.217474,17.7630217 119.887812,17.7138222 120.649195,17.7138222 C121.200922,17.7138222 121.664366,17.7876215 122.03954,17.9352222 C122.414715,18.082823 122.729194,18.2987541 122.982989,18.5830222 C123.06023,18.5283553 123.181608,18.4518227 123.347126,18.3534222 C123.512645,18.2550217 123.71678,18.159356 123.95954,18.0664222 C124.2023,17.9734884 124.472642,17.8914892 124.770575,17.8204222 C125.068507,17.7493552 125.388504,17.7138222 125.730575,17.7138222 C126.392647,17.7138222 126.933331,17.8094879 127.352644,18.0008222 C127.771956,18.1921565 128.100229,18.4627538 128.337471,18.8126222 C128.574714,19.1624906 128.734712,19.5779532 128.817471,20.0590222 C128.90023,20.5400913 128.941609,21.064886 128.941609,21.6334222 L128.941609,26.4222222 L127.402299,26.4222222 L127.402299,21.9614222 C127.402299,21.4584864 127.377472,21.026624 127.327816,20.6658222 C127.278161,20.3050204 127.184369,20.0043568 127.046437,19.7638222 C126.908505,19.5232877 126.720921,19.3456228 126.483678,19.2308222 C126.246436,19.1160216 125.940232,19.0586222 125.565057,19.0586222 C125.046434,19.0586222 124.618852,19.1269549 124.282299,19.2636222 C123.945745,19.4002896 123.716782,19.5232883 123.595402,19.6326222 C123.683679,19.9168903 123.749885,20.2284872 123.794023,20.5674222 C123.838161,20.9063573 123.86023,21.261687 123.86023,21.6334222 L123.86023,26.4222222 L122.32092,26.4222222 L122.32092,21.9614222 C122.32092,21.4584864 122.293334,21.026624 122.238161,20.6658222 C122.182988,20.3050204 122.086437,20.0043568 121.948506,19.7638222 C121.810574,19.5232877 121.62299,19.3456228 121.385747,19.2308222 C121.148505,19.1160216 120.847818,19.0586222 120.483678,19.0586222 C120.329195,19.0586222 120.163679,19.0640888 119.987126,19.0750222 C119.810574,19.0859556 119.6423,19.0996221 119.482299,19.1160222 C119.322298,19.1324223 119.176093,19.1515554 119.043678,19.1734222 C118.911264,19.195289 118.822989,19.2116888 118.778851,19.2226222 L118.778851,26.4222222 L117.23954,26.4222222 L117.23954,18.1402222 Z M133.029885,26.4222222 L131.490575,26.4222222 L131.490575,17.8942222 L133.029885,17.8942222 L133.029885,26.4222222 Z M132.251954,16.3526222 C131.976091,16.3526222 131.74161,16.2624231 131.548506,16.0820222 C131.355401,15.9016213 131.258851,15.6583571 131.258851,15.3522222 C131.258851,15.0460874 131.355401,14.8028231 131.548506,14.6224222 C131.74161,14.4420213 131.976091,14.3518222 132.251954,14.3518222 C132.527817,14.3518222 132.762298,14.4420213 132.955402,14.6224222 C133.148507,14.8028231 133.245057,15.0460874 133.245057,15.3522222 C133.245057,15.6583571 133.148507,15.9016213 132.955402,16.0820222 C132.762298,16.2624231 132.527817,16.3526222 132.251954,16.3526222 Z M135.678161,18.1402222 C136.031266,18.0527551 136.500227,17.9598227 137.085057,17.8614222 C137.669888,17.7630217 138.342985,17.7138222 139.104368,17.7138222 C139.788509,17.7138222 140.356779,17.8094879 140.809195,18.0008222 C141.261611,18.1921565 141.622987,18.4600205 141.893333,18.8044222 C142.16368,19.1488239 142.354022,19.5615532 142.464368,20.0426222 C142.574713,20.5236913 142.629885,21.0539527 142.629885,21.6334222 L142.629885,26.4222222 L141.090575,26.4222222 L141.090575,21.9614222 C141.090575,21.4366196 141.054713,20.9883574 140.982989,20.6166222 C140.911264,20.244887 140.792645,19.9442234 140.627126,19.7146222 C140.461608,19.4850211 140.240921,19.3182894 139.965057,19.2144222 C139.689194,19.110555 139.347128,19.0586222 138.938851,19.0586222 C138.773333,19.0586222 138.6023,19.0640888 138.425747,19.0750222 C138.249195,19.0859556 138.08092,19.0996221 137.92092,19.1160222 C137.760919,19.1324223 137.617472,19.1515554 137.490575,19.1734222 C137.363678,19.195289 137.272644,19.2116888 137.217471,19.2226222 L137.217471,26.4222222 L135.678161,26.4222222 L135.678161,18.1402222 Z M146.718161,26.4222222 L145.178851,26.4222222 L145.178851,17.8942222 L146.718161,17.8942222 L146.718161,26.4222222 Z M145.94023,16.3526222 C145.664366,16.3526222 145.429886,16.2624231 145.236782,16.0820222 C145.043677,15.9016213 144.947126,15.6583571 144.947126,15.3522222 C144.947126,15.0460874 145.043677,14.8028231 145.236782,14.6224222 C145.429886,14.4420213 145.664366,14.3518222 145.94023,14.3518222 C146.216093,14.3518222 146.450574,14.4420213 146.643678,14.6224222 C146.836783,14.8028231 146.933333,15.0460874 146.933333,15.3522222 C146.933333,15.6583571 146.836783,15.9016213 146.643678,16.0820222 C146.450574,16.2624231 146.216093,16.3526222 145.94023,16.3526222 Z M151.369195,25.3234222 C151.998164,25.3234222 152.464366,25.241423 152.767816,25.0774222 C153.071266,24.9134214 153.222989,24.651024 153.222989,24.2902222 C153.222989,23.918487 153.074024,23.62329 152.776092,23.4046222 C152.478159,23.1859545 151.98713,22.9399569 151.302989,22.6666222 C150.971952,22.5354216 150.654714,22.4014896 150.351264,22.2648222 C150.047815,22.1281549 149.785748,21.9668898 149.565057,21.7810222 C149.344367,21.5951546 149.167817,21.3710235 149.035402,21.1086222 C148.902988,20.8462209 148.836782,20.5236908 148.836782,20.1410222 C148.836782,19.3866185 149.118158,18.7880244 149.68092,18.3452222 C150.243681,17.90242 151.01057,17.6810222 151.981609,17.6810222 C152.224369,17.6810222 152.467125,17.6946888 152.709885,17.7220222 C152.952645,17.7493557 153.17885,17.7821554 153.388506,17.8204222 C153.598162,17.8586891 153.782988,17.8996887 153.942989,17.9434222 C154.102989,17.9871558 154.227126,18.0254221 154.315402,18.0582222 L154.034023,19.3702222 C153.868505,19.2827551 153.609197,19.192556 153.256092,19.0996222 C152.902987,19.0066884 152.478163,18.9602222 151.981609,18.9602222 C151.551262,18.9602222 151.176094,19.0449547 150.856092,19.2144222 C150.53609,19.3838897 150.376092,19.6490204 150.376092,20.0098222 C150.376092,20.1956898 150.411954,20.3596882 150.483678,20.5018222 C150.555403,20.6439563 150.665746,20.7724216 150.814713,20.8872222 C150.963679,21.0020228 151.148505,21.1086217 151.369195,21.2070222 C151.589886,21.3054227 151.854711,21.4092883 152.163678,21.5186222 C152.571956,21.6716897 152.93609,21.8220215 153.256092,21.9696222 C153.576094,22.117223 153.849194,22.2894212 154.075402,22.4862222 C154.30161,22.6830232 154.475402,22.9208208 154.596782,23.1996222 C154.718162,23.4784236 154.778851,23.8200869 154.778851,24.2246222 C154.778851,25.0118262 154.483681,25.6076869 153.893333,26.0122222 C153.302986,26.4167576 152.461615,26.6190222 151.369195,26.6190222 C150.607812,26.6190222 150.011956,26.5561562 149.581609,26.4304222 C149.151262,26.3046883 148.858851,26.2090226 148.704368,26.1434222 L148.985747,24.8314222 C149.1623,24.8970226 149.443676,24.9954216 149.829885,25.1266222 C150.216094,25.2578229 150.729192,25.3234222 151.369195,25.3234222 Z M158.188506,17.8942222 L161.449195,17.8942222 L161.449195,19.1734222 L158.188506,19.1734222 L158.188506,23.1094222 C158.188506,23.5358244 158.221609,23.8884208 158.287816,24.1672222 C158.354023,24.4460236 158.453333,24.6646881 158.585747,24.8232222 C158.718162,24.9817563 158.883677,25.0938219 159.082299,25.1594222 C159.280921,25.2250226 159.512642,25.2578222 159.777471,25.2578222 C160.240922,25.2578222 160.613332,25.2058894 160.894713,25.1020222 C161.176093,24.998155 161.371953,24.9243558 161.482299,24.8806222 L161.78023,26.1434222 C161.625746,26.2199559 161.355404,26.3156216 160.969195,26.4304222 C160.582987,26.5452228 160.141612,26.6026222 159.645057,26.6026222 C159.060227,26.6026222 158.577473,26.528823 158.196782,26.3812222 C157.81609,26.2336215 157.509886,26.0122237 157.278161,25.7170222 C157.046436,25.4218207 156.883679,25.058291 156.789885,24.6264222 C156.696091,24.1945534 156.649195,23.6943584 156.649195,23.1258222 L156.649195,15.5162222 L158.188506,15.2538222 L158.188506,17.8942222 Z M166.58023,17.7138222 C166.712644,17.7138222 166.864367,17.7220221 167.035402,17.7384222 C167.206438,17.7548223 167.374712,17.7766888 167.54023,17.8040222 C167.705748,17.8313557 167.857471,17.8586888 167.995402,17.8860222 C168.133334,17.9133557 168.235402,17.9379554 168.301609,17.9598222 L168.036782,19.2882222 C167.915402,19.2444887 167.714024,19.1925559 167.432644,19.1324222 C167.151263,19.0722886 166.789887,19.0422222 166.348506,19.0422222 C166.061608,19.0422222 165.777473,19.0722886 165.496092,19.1324222 C165.214711,19.1925559 165.029885,19.2335554 164.941609,19.2554222 L164.941609,26.4222222 L163.402299,26.4222222 L163.402299,18.2550222 C163.766439,18.1238216 164.218848,18.0008228 164.75954,17.8860222 C165.300233,17.7712216 165.907123,17.7138222 166.58023,17.7138222 Z M172.704368,25.3234222 C173.068508,25.3234222 173.391263,25.3152223 173.672644,25.2988222 C173.954024,25.2824221 174.188505,25.2523558 174.376092,25.2086222 L174.376092,22.6666222 C174.265747,22.6119553 174.086438,22.5654891 173.838161,22.5272222 C173.589884,22.4889554 173.289197,22.4698222 172.936092,22.4698222 C172.704367,22.4698222 172.458852,22.4862221 172.19954,22.5190222 C171.940229,22.5518224 171.70299,22.620155 171.487816,22.7240222 C171.272643,22.8278894 171.093334,22.9700213 170.949885,23.1504222 C170.806436,23.3308231 170.734713,23.5686207 170.734713,23.8638222 C170.734713,24.4104916 170.911263,24.7904212 171.264368,25.0036222 C171.617473,25.2168233 172.097468,25.3234222 172.704368,25.3234222 Z M172.571954,17.6810222 C173.189888,17.6810222 173.711262,17.7602881 174.136092,17.9188222 C174.560922,18.0773563 174.902987,18.3014874 175.162299,18.5912222 C175.42161,18.880957 175.606436,19.2253536 175.716782,19.6244222 C175.827127,20.0234909 175.882299,20.4635532 175.882299,20.9446222 L175.882299,26.2746222 C175.749884,26.296489 175.565059,26.3265554 175.327816,26.3648222 C175.090574,26.4030891 174.82299,26.4386221 174.525057,26.4714222 C174.227125,26.5042224 173.90437,26.5342888 173.556782,26.5616222 C173.209194,26.5889557 172.86437,26.6026222 172.522299,26.6026222 C172.036779,26.6026222 171.589887,26.5534227 171.181609,26.4550222 C170.773331,26.3566217 170.420231,26.2008233 170.122299,25.9876222 C169.824366,25.7744212 169.592645,25.4928906 169.427126,25.1430222 C169.261608,24.7931538 169.178851,24.3722247 169.178851,23.8802222 C169.178851,23.4100865 169.275401,23.0055573 169.468506,22.6666222 C169.66161,22.3276872 169.923677,22.0543566 170.254713,21.8466222 C170.585749,21.6388879 170.971952,21.4858227 171.413333,21.3874222 C171.854715,21.2890217 172.318158,21.2398222 172.803678,21.2398222 C172.958162,21.2398222 173.11816,21.2480221 173.283678,21.2644222 C173.449196,21.2808223 173.606436,21.3026888 173.755402,21.3300222 C173.904369,21.3573557 174.034022,21.3819554 174.144368,21.4038222 C174.254713,21.425689 174.331954,21.4420888 174.376092,21.4530222 L174.376092,21.0266222 C174.376092,20.7751543 174.348506,20.5264235 174.293333,20.2804222 C174.238161,20.034421 174.138851,19.8157565 173.995402,19.6244222 C173.851953,19.4330879 173.656093,19.2800228 173.407816,19.1652222 C173.159539,19.0504216 172.836784,18.9930222 172.43954,18.9930222 C171.931951,18.9930222 171.487818,19.0285552 171.107126,19.0996222 C170.726435,19.1706892 170.4423,19.2444885 170.254713,19.3210222 L170.072644,18.0582222 C170.271265,17.9707551 170.602297,17.8860226 171.065747,17.8040222 C171.529198,17.7220218 172.031262,17.6810222 172.571954,17.6810222 Z M179.871264,17.8942222 L183.131954,17.8942222 L183.131954,19.1734222 L179.871264,19.1734222 L179.871264,23.1094222 C179.871264,23.5358244 179.904367,23.8884208 179.970575,24.1672222 C180.036782,24.4460236 180.136091,24.6646881 180.268506,24.8232222 C180.40092,24.9817563 180.566436,25.0938219 180.765057,25.1594222 C180.963679,25.2250226 181.195401,25.2578222 181.46023,25.2578222 C181.92368,25.2578222 182.296091,25.2058894 182.577471,25.1020222 C182.858852,24.998155 183.054712,24.9243558 183.165057,24.8806222 L183.462989,26.1434222 C183.308505,26.2199559 183.038163,26.3156216 182.651954,26.4304222 C182.265745,26.5452228 181.82437,26.6026222 181.327816,26.6026222 C180.742986,26.6026222 180.260232,26.528823 179.87954,26.3812222 C179.498849,26.2336215 179.192645,26.0122237 178.96092,25.7170222 C178.729194,25.4218207 178.566437,25.058291 178.472644,24.6264222 C178.37885,24.1945534 178.331954,23.6943584 178.331954,23.1258222 L178.331954,15.5162222 L179.871264,15.2538222 L179.871264,17.8942222 Z M192.450575,22.1582222 C192.450575,22.8360923 192.351265,23.4483528 192.152644,23.9950222 C191.954022,24.5416916 191.675404,25.0118203 191.316782,25.4054222 C190.958159,25.7990242 190.530577,26.1024212 190.034023,26.3156222 C189.537469,26.5288233 188.996785,26.6354222 188.411954,26.6354222 C187.827124,26.6354222 187.286439,26.5288233 186.789885,26.3156222 C186.293331,26.1024212 185.865749,25.7990242 185.507126,25.4054222 C185.148504,25.0118203 184.869886,24.5416916 184.671264,23.9950222 C184.472643,23.4483528 184.373333,22.8360923 184.373333,22.1582222 C184.373333,21.4912856 184.472643,20.8817583 184.671264,20.3296222 C184.869886,19.7774861 185.148504,19.3046242 185.507126,18.9110222 C185.865749,18.5174203 186.293331,18.2140233 186.789885,18.0008222 C187.286439,17.7876212 187.827124,17.6810222 188.411954,17.6810222 C188.996785,17.6810222 189.537469,17.7876212 190.034023,18.0008222 C190.530577,18.2140233 190.958159,18.5174203 191.316782,18.9110222 C191.675404,19.3046242 191.954022,19.7774861 192.152644,20.3296222 C192.351265,20.8817583 192.450575,21.4912856 192.450575,22.1582222 Z M190.845057,22.1582222 C190.845057,21.1960841 190.627129,20.4334917 190.191264,19.8704222 C189.7554,19.3073527 189.162303,19.0258222 188.411954,19.0258222 C187.661605,19.0258222 187.068508,19.3073527 186.632644,19.8704222 C186.196779,20.4334917 185.978851,21.1960841 185.978851,22.1582222 C185.978851,23.1203604 186.196779,23.8829527 186.632644,24.4460222 C187.068508,25.0090917 187.661605,25.2906222 188.411954,25.2906222 C189.162303,25.2906222 189.7554,25.0090917 190.191264,24.4460222 C190.627129,23.8829527 190.845057,23.1203604 190.845057,22.1582222 Z M197.796782,17.7138222 C197.929196,17.7138222 198.080919,17.7220221 198.251954,17.7384222 C198.422989,17.7548223 198.591264,17.7766888 198.756782,17.8040222 C198.9223,17.8313557 199.074022,17.8586888 199.211954,17.8860222 C199.349886,17.9133557 199.451954,17.9379554 199.518161,17.9598222 L199.253333,19.2882222 C199.131953,19.2444887 198.930576,19.1925559 198.649195,19.1324222 C198.367815,19.0722886 198.006439,19.0422222 197.565057,19.0422222 C197.278159,19.0422222 196.994024,19.0722886 196.712644,19.1324222 C196.431263,19.1925559 196.246437,19.2335554 196.158161,19.2554222 L196.158161,26.4222222 L194.618851,26.4222222 L194.618851,18.2550222 C194.98299,18.1238216 195.4354,18.0008228 195.976092,17.8860222 C196.516784,17.7712216 197.123675,17.7138222 197.796782,17.7138222 Z" id="Firmenadministrator" fill="#FFFFFF"></path>
                <path d="M9.65517241,26.3985333 L9.65517241,15.0333333 L16.5737931,15.0333333 L16.5737931,16.3945333 L11.2606897,16.3945333 L11.2606897,19.8221333 L15.977931,19.8221333 L15.977931,21.1669333 L11.2606897,21.1669333 L11.2606897,26.3985333 L9.65517241,26.3985333 Z M25.4455172,26.3985333 C25.2579301,25.9065309 25.0813801,25.4227357 24.9158621,24.9471333 C24.750344,24.471531 24.5793112,23.9877358 24.4027586,23.4957333 L19.2055172,23.4957333 L18.1627586,26.3985333 L16.4910345,26.3985333 C16.932416,25.1958607 17.346205,24.0834051 17.7324138,23.0611333 C18.1186226,22.0388616 18.4965499,21.0685379 18.8662069,20.1501333 C19.2358639,19.2317287 19.6027568,18.3543375 19.9668966,17.5179333 C20.3310363,16.6815292 20.7117222,15.8533374 21.1089655,15.0333333 L22.582069,15.0333333 C22.9793123,15.8533374 23.3599982,16.6815292 23.7241379,17.5179333 C24.0882777,18.3543375 24.4551706,19.2317287 24.8248276,20.1501333 C25.1944846,21.0685379 25.5724119,22.0388616 25.9586207,23.0611333 C26.3448295,24.0834051 26.7586185,25.1958607 27.2,26.3985333 L25.4455172,26.3985333 Z M23.9393103,22.1837333 C23.5862051,21.2325286 23.2358638,20.3114045 22.8882759,19.4203333 C22.5406879,18.5292622 22.1793122,17.6737374 21.8041379,16.8537333 C21.4179291,17.6737374 21.0510362,18.5292622 20.7034483,19.4203333 C20.3558603,20.3114045 20.0110362,21.2325286 19.6689655,22.1837333 L23.9393103,22.1837333 Z" id="FA" fill="#3A3A3A"></path>
            </g>
        </g>
    </g>
</svg>