<?xml version="1.0" encoding="UTF-8"?>
<svg width="200px" height="41px" viewBox="0 0 200 41" version="1.1" xmlns="http://www.w3.org/2000/svg" xmlns:xlink="http://www.w3.org/1999/xlink">
    <!-- Generator: sketchtool 49.3 (51167) - http://www.bohemiancoding.com/sketch -->
    <title>BCB2CEAD-E5CD-4B0A-8B57-748B3A8182CE@2x</title>
    <desc>Created with sketchtool.</desc>
    <defs></defs>
    <g id="Page-1" stroke="none" stroke-width="1" fill="none" fill-rule="evenodd">
        <g id="Logos" transform="translate(-468.000000, -435.000000)">
            <g id="logo" transform="translate(468.000000, 435.000000)">
                <path d="M20.1842796,1.10308779 L34.4075142,9.10365727 C35.6670221,9.81213047 36.4464692,11.1448662 36.4464692,12.5899594 L36.4464692,28.4123185 C36.4464692,29.8574117 35.6670221,31.1901474 34.4075142,31.8986206 L20.1842796,39.8991901 C18.9666254,40.5841206 17.4798438,40.5841206 16.2621897,39.8991901 L2.03895504,31.8986206 C0.779447116,31.1901474 3.06421555e-14,29.8574117 2.66453526e-14,28.4123185 L1.59872116e-14,12.5899594 C1.59872116e-14,11.1448662 0.779447116,9.81213047 2.03895504,9.10365727 L16.2621897,1.10308779 C17.4798438,0.418157321 18.9666254,0.418157321 20.1842796,1.10308779 Z" id="Polygon" fill="#FFFFFF"></path>
                <path d="M11.7102506,25.0751708 C13.3722179,25.0751708 14.2031891,24.5066116 14.2031891,23.3694761 C14.2031891,23.0195882 14.1293857,22.7216413 13.9817768,22.4756264 C13.8341678,22.2296115 13.6346254,22.0164018 13.3831435,21.8359909 C13.1316616,21.65558 12.8446485,21.4997729 12.5220957,21.3685649 C12.1995428,21.237357 11.8578606,21.106151 11.4970387,20.9749431 C11.0815469,20.8328011 10.687929,20.6715271 10.3161731,20.4911162 C9.94441728,20.3107052 9.62186925,20.0974955 9.34851936,19.8514806 C9.07516948,19.6054657 8.85922631,19.3129857 8.70068337,18.9740319 C8.54214044,18.635078 8.46287016,18.2250594 8.46287016,17.7439636 C8.46287016,16.74897 8.80181893,15.9726679 9.47972665,15.4150342 C10.1576344,14.8574004 11.092477,14.5785877 12.2842825,14.5785877 C12.9731242,14.5785877 13.599086,14.6523911 14.1621868,14.8 C14.7252876,14.9476089 15.1380397,15.108883 15.4004556,15.2838269 L14.8920273,16.5794989 C14.6624134,16.4373569 14.3207312,16.2979506 13.8669704,16.1612756 C13.4132096,16.0246007 12.8856522,15.9562642 12.2842825,15.9562642 C11.9781306,15.9562642 11.693851,15.9890657 11.4314351,16.0546697 C11.1690192,16.1202737 10.9394087,16.2186782 10.7425968,16.3498861 C10.5457849,16.4810941 10.3899778,16.647835 10.2751708,16.8501139 C10.1603639,17.0523928 10.1029613,17.2902036 10.1029613,17.5635535 C10.1029613,17.8697054 10.1630973,18.1266504 10.2833713,18.3343964 C10.4036452,18.5421423 10.5731196,18.7252839 10.7917995,18.8838269 C11.0104795,19.0423698 11.264691,19.1872431 11.5544419,19.318451 C11.8441928,19.449659 12.1640074,19.5808649 12.5138952,19.7120729 C13.005925,19.9088848 13.4569456,20.1056938 13.8669704,20.3025057 C14.2769952,20.4993176 14.6323447,20.734395 14.9330296,21.0077449 C15.2337145,21.2810948 15.4660584,21.6063762 15.6300683,21.9835991 C15.7940783,22.3608219 15.876082,22.8173094 15.876082,23.3530752 C15.876082,24.3480688 15.5125321,25.113437 14.7854214,25.6492027 C14.0583107,26.1849685 13.033264,26.4528474 11.7102506,26.4528474 C11.2619568,26.4528474 10.8492046,26.4227793 10.4719818,26.3626424 C10.0947589,26.3025054 9.75854362,26.2314355 9.46332574,26.1494305 C9.16810786,26.0674256 8.91389628,25.9799549 8.70068337,25.8870159 C8.48747046,25.794077 8.32072953,25.7148067 8.20045558,25.6492027 L8.676082,24.3371298 C8.9275639,24.4792718 9.310248,24.6378123 9.82414579,24.8127563 C10.3380436,24.9877002 10.9667389,25.0751708 11.7102506,25.0751708 Z M17.3357631,20.5157175 C17.3357631,19.5425919 17.4806364,18.6842862 17.7703872,17.9407745 C18.0601381,17.1972628 18.4537561,16.5767679 18.9512528,16.0792711 C19.4487496,15.5817743 20.0282427,15.2072906 20.6897494,14.9558087 C21.3512562,14.7043268 22.0537548,14.5785877 22.7972665,14.5785877 C23.5298442,14.5785877 24.221409,14.7043268 24.8719818,14.9558087 C25.5225545,15.2072906 26.0938472,15.5817743 26.585877,16.0792711 C27.0779068,16.5767679 27.4687913,17.1972628 27.7585421,17.9407745 C28.048293,18.6842862 28.1931663,19.5425919 28.1931663,20.5157175 C28.1931663,21.4888431 28.048293,22.3471489 27.7585421,23.0906606 C27.4687913,23.8341723 27.0779068,24.4546672 26.585877,24.952164 C26.0938472,25.4496608 25.5225545,25.8241445 24.8719818,26.0756264 C24.221409,26.3271083 23.5298442,26.4528474 22.7972665,26.4528474 C22.0537548,26.4528474 21.3512562,26.3271083 20.6897494,26.0756264 C20.0282427,25.8241445 19.4487496,25.4496608 18.9512528,24.952164 C18.4537561,24.4546672 18.0601381,23.8341723 17.7703872,23.0906606 C17.4806364,22.3471489 17.3357631,21.4888431 17.3357631,20.5157175 Z M19.008656,20.5157175 C19.008656,21.2045593 19.0961267,21.8305211 19.2710706,22.3936219 C19.4460145,22.9567226 19.6947592,23.4350778 20.0173121,23.8287016 C20.3398649,24.2223254 20.7334829,24.5257393 21.1981777,24.7389522 C21.6628725,24.9521651 22.1849629,25.0587699 22.7644647,25.0587699 C23.3439665,25.0587699 23.8633234,24.9521651 24.3225513,24.7389522 C24.7817791,24.5257393 25.1726635,24.2223254 25.4952164,23.8287016 C25.8177693,23.4350778 26.0665139,22.9567226 26.2414579,22.3936219 C26.4164018,21.8305211 26.5038724,21.2045593 26.5038724,20.5157175 C26.5038724,19.8268758 26.4164018,19.200914 26.2414579,18.6378132 C26.0665139,18.0747124 25.8177693,17.5963573 25.4952164,17.2027335 C25.1726635,16.8091096 24.7817791,16.5056958 24.3225513,16.2924829 C23.8633234,16.07927 23.3439665,15.9726651 22.7644647,15.9726651 C22.1849629,15.9726651 21.6628725,16.07927 21.1981777,16.2924829 C20.7334829,16.5056958 20.3398649,16.8091096 20.0173121,17.2027335 C19.6947592,17.5963573 19.4460145,18.0747124 19.2710706,18.6378132 C19.0961267,19.200914 19.008656,19.8268758 19.008656,20.5157175 Z" id="SO" fill="#202020"></path>
                <path d="M48.6979499,24.3808656 C50.3599172,24.3808656 51.1908884,23.8123064 51.1908884,22.6751708 C51.1908884,22.325283 51.117085,22.0273361 50.9694761,21.7813212 C50.8218671,21.5353063 50.6223247,21.3220966 50.3708428,21.1416856 C50.1193609,20.9612747 49.8323479,20.8054676 49.509795,20.6742597 C49.1872421,20.5430517 48.8455599,20.4118458 48.484738,20.2806378 C48.0692462,20.1384959 47.6756283,19.9772219 47.3038724,19.7968109 C46.9321166,19.6164 46.6095686,19.4031903 46.3362187,19.1571754 C46.0628688,18.9111605 45.8469256,18.6186805 45.6883827,18.2797267 C45.5298398,17.9407728 45.4505695,17.5307541 45.4505695,17.0496583 C45.4505695,16.0546647 45.7895183,15.2783627 46.467426,14.7207289 C47.1453337,14.1630952 48.0801763,13.8842825 49.2719818,13.8842825 C49.9608235,13.8842825 50.5867853,13.9580858 51.1498861,14.1056948 C51.7129869,14.2533037 52.125739,14.4145777 52.3881549,14.5895216 L51.8797267,15.8851936 C51.6501127,15.7430517 51.3084305,15.6036453 50.8546697,15.4669704 C50.4009089,15.3302954 49.8733515,15.261959 49.2719818,15.261959 C48.9658299,15.261959 48.6815503,15.2947605 48.4191344,15.3603645 C48.1567185,15.4259684 47.927108,15.5243729 47.7302961,15.6555809 C47.5334842,15.7867888 47.3776771,15.9535297 47.2628702,16.1558087 C47.1480632,16.3580876 47.0906606,16.5958984 47.0906606,16.8692483 C47.0906606,17.1754002 47.1507967,17.4323452 47.2710706,17.6400911 C47.3913446,17.847837 47.560819,18.0309787 47.7794989,18.1895216 C47.9981788,18.3480646 48.2523904,18.4929378 48.5421412,18.6241458 C48.8318921,18.7553537 49.1517067,18.8865597 49.5015945,19.0177677 C49.9936243,19.2145796 50.4446449,19.4113885 50.8546697,19.6082005 C51.2646945,19.8050124 51.6200441,20.0400897 51.9207289,20.3134396 C52.2214138,20.5867895 52.4537577,20.912071 52.6177677,21.2892938 C52.7817776,21.6665167 52.8637813,22.1230042 52.8637813,22.6587699 C52.8637813,23.6537635 52.5002314,24.4191317 51.7731207,24.9548975 C51.04601,25.4906633 50.0209633,25.7585421 48.6979499,25.7585421 C48.2496561,25.7585421 47.8369039,25.7284741 47.4596811,25.6683371 C47.0824583,25.6082002 46.7462429,25.5371303 46.4510251,25.4551253 C46.1558072,25.3731203 45.9015956,25.2856497 45.6883827,25.1927107 C45.4751698,25.0997717 45.3084288,25.0205015 45.1881549,24.9548975 L45.6637813,23.6428246 C45.9152632,23.7849665 46.2979473,23.9435071 46.8118451,24.118451 C47.3257429,24.293395 47.9544382,24.3808656 48.6979499,24.3808656 Z M53.6838269,27.1034169 C53.8041008,27.1580868 53.9599079,27.2100225 54.1512528,27.2592255 C54.3425978,27.3084285 54.5312064,27.3330296 54.7170843,27.3330296 C55.318454,27.3330296 55.7886088,27.1990902 56.1275626,26.9312073 C56.4665165,26.6633244 56.7726638,26.2287046 57.0460137,25.6273349 C56.357172,24.3152554 55.7148094,22.9239253 55.1189066,21.453303 C54.5230039,19.9826806 54.028248,18.492946 53.6346241,16.9840547 L55.2747153,16.9840547 C55.3949892,17.4760845 55.5398625,18.0063753 55.7093394,18.5749431 C55.8788163,19.1435108 56.0674249,19.7284708 56.2751708,20.3298405 C56.4829168,20.9312103 56.7070603,21.532571 56.9476082,22.1339408 C57.1881561,22.7353105 57.4396342,23.3148036 57.7020501,23.8724374 C58.1175419,22.7243678 58.4783584,21.5872494 58.7845103,20.4610478 C59.0906621,19.3348463 59.3804087,18.1758602 59.6537585,16.9840547 L61.228246,16.9840547 C60.8346222,18.591352 60.3972689,20.1357557 59.9161731,21.6173121 C59.4350773,23.0988685 58.9157203,24.4847316 58.3580866,25.7749431 C58.1394067,26.2669728 57.9125296,26.6906588 57.6774487,27.0460137 C57.4423678,27.4013685 57.1826893,27.6938485 56.8984055,27.9234624 C56.6141216,28.1530763 56.294307,28.3225507 55.9389522,28.4318907 C55.5835973,28.5412306 55.181779,28.5958998 54.7334852,28.5958998 C54.6132112,28.5958998 54.4874722,28.5876994 54.3562642,28.5712984 C54.2250563,28.5548974 54.0965838,28.5330297 53.9708428,28.5056948 C53.8451019,28.4783598 53.7302966,28.4482917 53.6264237,28.4154897 C53.5225507,28.3826878 53.4487474,28.3553532 53.4050114,28.3334852 L53.6838269,27.1034169 Z M64.8200456,24.4136674 C65.4432833,24.4136674 65.9052377,24.3316637 66.2059226,24.1676538 C66.5066074,24.0036438 66.6569476,23.7412319 66.6569476,23.38041 C66.6569476,23.0086542 66.5093409,22.7134407 66.214123,22.4947608 C65.9189051,22.2760809 65.4323496,22.0300697 64.7544419,21.7567198 C64.4264221,21.6255119 64.1120744,21.4915724 63.8113895,21.3548975 C63.5107046,21.2182226 63.2510262,21.0569485 63.0323462,20.8710706 C62.8136663,20.6851927 62.638725,20.4610491 62.5075171,20.1986333 C62.3763091,19.9362174 62.3107062,19.6136693 62.3107062,19.2309795 C62.3107062,18.4765338 62.5895189,17.8779065 63.1471526,17.4350797 C63.7047864,16.9922529 64.4646877,16.7708428 65.4268793,16.7708428 C65.6674272,16.7708428 65.9079715,16.7845101 66.1485194,16.8118451 C66.3890673,16.8391801 66.6132108,16.8719816 66.8209567,16.9102506 C67.0287026,16.9485196 67.2118443,16.9895214 67.3703872,17.0332574 C67.5289302,17.0769934 67.6519358,17.1152618 67.7394077,17.1480638 L67.4605923,18.4601367 C67.2965823,18.3726647 67.0396373,18.2824606 66.6897494,18.1895216 C66.3398616,18.0965827 65.9189091,18.0501139 65.4268793,18.0501139 C65.0004534,18.0501139 64.6287032,18.1348511 64.3116173,18.304328 C63.9945314,18.4738049 63.8359909,18.7389504 63.8359909,19.0997722 C63.8359909,19.2856501 63.8715258,19.4496576 63.9425968,19.5917995 C64.0136678,19.7339415 64.1230061,19.862414 64.270615,19.977221 C64.418224,20.0920279 64.6013656,20.1986328 64.8200456,20.2970387 C65.0387255,20.3954447 65.3011374,20.4993161 65.6072893,20.608656 C66.0118471,20.761732 66.3726636,20.9120722 66.6897494,21.0596811 C67.0068353,21.20729 67.2774476,21.3794979 67.5015945,21.5763098 C67.7257414,21.7731217 67.8979493,22.0109325 68.0182232,22.2897494 C68.1384972,22.5685663 68.1986333,22.9102485 68.1986333,23.3148064 C68.1986333,24.1020541 67.9061533,24.6979479 67.3211845,25.1025057 C66.7362158,25.5070635 65.9025111,25.7093394 64.8200456,25.7093394 C64.0655999,25.7093394 63.475173,25.6464699 63.0487472,25.5207289 C62.6223213,25.394988 62.3325748,25.299317 62.1794989,25.233713 L62.4583144,23.9216401 C62.6332583,23.9872441 62.912071,24.0856485 63.2947608,24.2168565 C63.6774507,24.3480644 64.1858738,24.4136674 64.8200456,24.4136674 Z M71.577221,16.9840547 L74.8082005,16.9840547 L74.8082005,18.2633257 L71.577221,18.2633257 L71.577221,22.1995444 C71.577221,22.6259702 71.6100225,22.9785863 71.6756264,23.2574032 C71.7412304,23.5362201 71.8396349,23.7548967 71.9708428,23.9134396 C72.1020508,24.0719826 72.2660582,24.1840543 72.4628702,24.2496583 C72.6596821,24.3152623 72.8892925,24.3480638 73.1517084,24.3480638 C73.6109362,24.3480638 73.979953,24.2961281 74.2587699,24.1922551 C74.5375868,24.0883822 74.7316623,24.0145788 74.8410023,23.9708428 L75.1362187,25.233713 C74.9831427,25.310251 74.7152639,25.405922 74.332574,25.5207289 C73.9498842,25.6355359 73.5125309,25.6929385 73.0205011,25.6929385 C72.4409994,25.6929385 71.9626443,25.6191351 71.5854214,25.4715262 C71.2081986,25.3239173 70.9047847,25.1025072 70.6751708,24.8072893 C70.4455569,24.5120714 70.2842829,24.1485215 70.191344,23.7166287 C70.098405,23.2847359 70.0519362,22.7845131 70.0519362,22.2159453 L70.0519362,14.6059226 L71.577221,14.343508 L71.577221,16.9840547 Z M76.1038724,21.2646925 C76.1038724,20.5102468 76.2132108,19.8514835 76.4318907,19.2883827 C76.6505706,18.7252819 76.9403171,18.2578606 77.301139,17.8861048 C77.6619608,17.5143489 78.0774464,17.2355362 78.5476082,17.0496583 C79.01777,16.8637804 79.4988586,16.7708428 79.9908884,16.7708428 C81.1389579,16.7708428 82.0191313,17.1289258 82.6314351,17.8451025 C83.2437388,18.5612792 83.5498861,19.6519289 83.5498861,21.1170843 L83.5498861,21.3712984 C83.5498861,21.4751714 83.5444192,21.5708424 83.5334852,21.6583144 L77.6947608,21.6583144 C77.7603648,22.543968 78.0173098,23.2163986 78.4656036,23.6756264 C78.9138975,24.1348542 79.6136627,24.3644647 80.5649203,24.3644647 C81.1006861,24.3644647 81.5517066,24.3179959 81.9179954,24.2250569 C82.2842843,24.132118 82.5603635,24.0419139 82.7462415,23.9544419 L82.9594533,25.233713 C82.7735754,25.3321189 82.4482939,25.4359903 81.9835991,25.5453303 C81.5189043,25.6546703 80.9913469,25.7093394 80.4009112,25.7093394 C79.6573995,25.7093394 79.0150369,25.5972676 78.4738041,25.3731207 C77.9325713,25.1489738 77.4870177,24.8400931 77.1371298,24.4464692 C76.787242,24.0528454 76.5275635,23.5854241 76.3580866,23.0441913 C76.1886096,22.5029586 76.1038724,21.9097982 76.1038724,21.2646925 Z M81.9589977,20.428246 C81.9699317,19.7394043 81.7977239,19.1735785 81.442369,18.7307517 C81.0870142,18.2879249 80.5977252,18.0665148 79.9744875,18.0665148 C79.6245996,18.0665148 79.3157189,18.1348513 79.047836,18.2715262 C78.7799531,18.4082011 78.5530761,18.5858759 78.3671982,18.8045558 C78.1813203,19.0232357 78.036447,19.2747138 77.932574,19.5589977 C77.8287011,19.8432816 77.7603646,20.1330281 77.7275626,20.428246 L81.9589977,20.428246 Z M85.7476082,17.2300683 C86.0974961,17.1425964 86.5594504,17.0496588 87.1334852,16.9512528 C87.70752,16.8528469 88.3717502,16.8036446 89.1261959,16.8036446 C89.6728957,16.8036446 90.1321166,16.877448 90.5038724,17.0250569 C90.8756283,17.1726659 91.1872425,17.3886091 91.4387244,17.6728929 C91.5152623,17.618223 91.6355345,17.5416861 91.7995444,17.4432802 C91.9635544,17.3448742 92.1658302,17.2492032 92.4063781,17.1562642 C92.646926,17.0633253 92.9148049,16.9813215 93.2100228,16.9102506 C93.5052407,16.8391796 93.8223218,16.8036446 94.1612756,16.8036446 C94.8173154,16.8036446 95.3530731,16.8993157 95.7685649,17.0906606 C96.1840567,17.2820055 96.5093382,17.5526178 96.7444191,17.9025057 C96.9795,18.2523935 97.1380406,18.6678791 97.2200456,19.1489749 C97.3020505,19.6300707 97.3430524,20.1548947 97.3430524,20.7234624 L97.3430524,25.5125285 L95.8177677,25.5125285 L95.8177677,21.0514806 C95.8177677,20.5485168 95.7931665,20.1166305 95.7439636,19.7558087 C95.6947606,19.3949868 95.601823,19.0943064 95.4651481,18.8537585 C95.3284731,18.6132106 95.142598,18.4355359 94.9075171,18.3207289 C94.6724362,18.205922 94.3690224,18.1485194 93.9972665,18.1485194 C93.4833687,18.1485194 93.0596828,18.2168558 92.7261959,18.3535308 C92.392709,18.4902057 92.165832,18.6132113 92.0455581,18.7225513 C92.1330301,19.0068351 92.198633,19.3184493 92.242369,19.6574032 C92.286105,19.996357 92.3079727,20.3517066 92.3079727,20.7234624 L92.3079727,25.5125285 L90.7826879,25.5125285 L90.7826879,21.0514806 C90.7826879,20.5485168 90.7553533,20.1166305 90.7006834,19.7558087 C90.6460134,19.3949868 90.5503424,19.0943064 90.4136674,18.8537585 C90.2769925,18.6132106 90.0911173,18.4355359 89.8560364,18.3207289 C89.6209555,18.205922 89.3230086,18.1485194 88.9621868,18.1485194 C88.8091109,18.1485194 88.6451034,18.1539863 88.4701595,18.1649203 C88.2952155,18.1758543 88.1284746,18.1895216 87.9699317,18.2059226 C87.8113887,18.2223235 87.6665155,18.2414577 87.5353075,18.2633257 C87.4040996,18.2851937 87.3166289,18.3015945 87.2728929,18.3125285 L87.2728929,25.5125285 L85.7476082,25.5125285 L85.7476082,17.2300683 Z M102.755353,24.4136674 C103.116175,24.4136674 103.435989,24.4054671 103.714806,24.3890661 C103.993623,24.3726651 104.225967,24.342597 104.411845,24.298861 L104.411845,21.7567198 C104.302505,21.7020498 104.12483,21.6555811 103.878815,21.6173121 C103.632801,21.5790431 103.334854,21.5599089 102.984966,21.5599089 C102.755352,21.5599089 102.512074,21.5763096 102.255125,21.6091116 C101.998176,21.6419136 101.763099,21.7102501 101.549886,21.814123 C101.336673,21.917996 101.158998,22.0601358 101.016856,22.2405467 C100.874715,22.4209576 100.803645,22.6587685 100.803645,22.9539863 C100.803645,23.5006861 100.978586,23.8806367 101.328474,24.0938497 C101.678362,24.3070626 102.153983,24.4136674 102.755353,24.4136674 Z M102.624146,16.7708428 C103.23645,16.7708428 103.753073,16.8501131 104.174032,17.008656 C104.594991,17.167199 104.933939,17.3913425 105.190888,17.6810934 C105.447837,17.9708443 105.630979,18.31526 105.740319,18.7143508 C105.849659,19.1134416 105.904328,19.5535283 105.904328,20.0346241 L105.904328,25.3649203 C105.77312,25.3867883 105.589978,25.4168563 105.354897,25.4551253 C105.119817,25.4933943 104.854671,25.5289292 104.559453,25.5617312 C104.264235,25.5945332 103.944421,25.6246012 103.6,25.6519362 C103.255579,25.6792712 102.913897,25.6929385 102.574943,25.6929385 C102.093847,25.6929385 101.651027,25.6437363 101.246469,25.5453303 C100.841911,25.4469243 100.492029,25.2911172 100.196811,25.0779043 C99.9015931,24.8646914 99.6719826,24.5831453 99.5079727,24.2332574 C99.3439627,23.8833695 99.261959,23.462417 99.261959,22.9703872 C99.261959,22.5002254 99.35763,22.0956737 99.5489749,21.7567198 C99.7403199,21.417766 99.9999984,21.1444202 100.328018,20.9366743 C100.656038,20.7289283 101.038722,20.5758547 101.476082,20.4774487 C101.913442,20.3790428 102.372663,20.3298405 102.853759,20.3298405 C103.006834,20.3298405 103.165375,20.3380409 103.329385,20.3544419 C103.493395,20.3708429 103.649202,20.3927106 103.796811,20.4200456 C103.94442,20.4473805 104.072892,20.4719817 104.182232,20.4938497 C104.291572,20.5157176 104.368109,20.5321184 104.411845,20.5430524 L104.411845,20.1166287 C104.411845,19.8651468 104.384511,19.6164021 104.329841,19.3703872 C104.275171,19.1243723 104.176766,18.9056957 104.034624,18.7143508 C103.892482,18.5230059 103.698407,18.3699322 103.452392,18.2551253 C103.206377,18.1403183 102.886562,18.0829157 102.492938,18.0829157 C101.989975,18.0829157 101.549888,18.1184507 101.172665,18.1895216 C100.795442,18.2605926 100.513896,18.334396 100.328018,18.4109339 L100.147608,17.1480638 C100.34442,17.0605918 100.672435,16.9758546 101.131663,16.8938497 C101.590891,16.8118447 102.08838,16.7708428 102.624146,16.7708428 Z M113.940774,18.7881549 C113.754897,18.635079 113.487018,18.4874722 113.13713,18.3453303 C112.787242,18.2031884 112.404558,18.1321185 111.989066,18.1321185 C111.551706,18.1321185 111.177223,18.2113887 110.865604,18.3699317 C110.553985,18.5284746 110.299773,18.7471512 110.102961,19.0259681 C109.906149,19.304785 109.76401,19.6355334 109.676538,20.0182232 C109.589066,20.4009131 109.54533,20.8109318 109.54533,21.2482916 C109.54533,22.2432852 109.791342,23.0113868 110.283371,23.5526196 C110.775401,24.0938524 111.431431,24.3644647 112.251481,24.3644647 C112.666972,24.3644647 113.014122,24.3453305 113.292938,24.3070615 C113.571755,24.2687925 113.787699,24.2277907 113.940774,24.1840547 L113.940774,18.7881549 Z M113.940774,13.047836 L115.466059,12.7854214 L115.466059,25.2665148 C115.116171,25.3649208 114.667884,25.4633252 114.121185,25.5617312 C113.574485,25.6601372 112.945789,25.7093394 112.23508,25.7093394 C111.57904,25.7093394 110.988613,25.605468 110.463781,25.3977221 C109.93895,25.1899762 109.490662,24.8947627 109.118907,24.5120729 C108.747151,24.1293831 108.460138,23.6619618 108.257859,23.109795 C108.05558,22.5576282 107.954442,21.9371333 107.954442,21.2482916 C107.954442,20.5922518 108.039179,19.9908911 108.208656,19.4441913 C108.378133,18.8974916 108.626878,18.4273368 108.954897,18.033713 C109.282917,17.6400891 109.684736,17.3339419 110.160364,17.115262 C110.635993,16.8965821 111.179951,16.7872437 111.792255,16.7872437 C112.284285,16.7872437 112.718905,16.8528467 113.096128,16.9840547 C113.47335,17.1152626 113.754897,17.2410017 113.940774,17.3612756 L113.940774,13.047836 Z M118.090205,17.2300683 C118.440093,17.1425964 118.902047,17.0496588 119.476082,16.9512528 C120.050117,16.8528469 120.714347,16.8036446 121.468793,16.8036446 C122.015492,16.8036446 122.474713,16.877448 122.846469,17.0250569 C123.218225,17.1726659 123.529839,17.3886091 123.781321,17.6728929 C123.857859,17.618223 123.978131,17.5416861 124.142141,17.4432802 C124.306151,17.3448742 124.508427,17.2492032 124.748975,17.1562642 C124.989523,17.0633253 125.257402,16.9813215 125.55262,16.9102506 C125.847837,16.8391796 126.164919,16.8036446 126.503872,16.8036446 C127.159912,16.8036446 127.69567,16.8993157 128.111162,17.0906606 C128.526654,17.2820055 128.851935,17.5526178 129.087016,17.9025057 C129.322097,18.2523935 129.480637,18.6678791 129.562642,19.1489749 C129.644647,19.6300707 129.685649,20.1548947 129.685649,20.7234624 L129.685649,25.5125285 L128.160364,25.5125285 L128.160364,21.0514806 C128.160364,20.5485168 128.135763,20.1166305 128.08656,19.7558087 C128.037357,19.3949868 127.94442,19.0943064 127.807745,18.8537585 C127.67107,18.6132106 127.485195,18.4355359 127.250114,18.3207289 C127.015033,18.205922 126.711619,18.1485194 126.339863,18.1485194 C125.825966,18.1485194 125.40228,18.2168558 125.068793,18.3535308 C124.735306,18.4902057 124.508429,18.6132113 124.388155,18.7225513 C124.475627,19.0068351 124.54123,19.3184493 124.584966,19.6574032 C124.628702,19.996357 124.650569,20.3517066 124.650569,20.7234624 L124.650569,25.5125285 L123.125285,25.5125285 L123.125285,21.0514806 C123.125285,20.5485168 123.09795,20.1166305 123.04328,19.7558087 C122.98861,19.3949868 122.892939,19.0943064 122.756264,18.8537585 C122.619589,18.6132106 122.433714,18.4355359 122.198633,18.3207289 C121.963552,18.205922 121.665605,18.1485194 121.304784,18.1485194 C121.151708,18.1485194 120.9877,18.1539863 120.812756,18.1649203 C120.637812,18.1758543 120.471071,18.1895216 120.312528,18.2059226 C120.153986,18.2223235 120.009112,18.2414577 119.877904,18.2633257 C119.746696,18.2851937 119.659226,18.3015945 119.61549,18.3125285 L119.61549,25.5125285 L118.090205,25.5125285 L118.090205,17.2300683 Z M133.736674,25.5125285 L132.21139,25.5125285 L132.21139,16.9840547 L133.736674,16.9840547 L133.736674,25.5125285 Z M132.965831,15.442369 C132.692482,15.442369 132.460138,15.3521649 132.268793,15.171754 C132.077448,14.9913431 131.981777,14.7480653 131.981777,14.4419134 C131.981777,14.1357616 132.077448,13.8924838 132.268793,13.7120729 C132.460138,13.531662 132.692482,13.4414579 132.965831,13.4414579 C133.239181,13.4414579 133.471525,13.531662 133.66287,13.7120729 C133.854215,13.8924838 133.949886,14.1357616 133.949886,14.4419134 C133.949886,14.7480653 133.854215,14.9913431 133.66287,15.171754 C133.471525,15.3521649 133.239181,15.442369 132.965831,15.442369 Z M136.36082,17.2300683 C136.710708,17.1425964 137.175396,17.0496588 137.754897,16.9512528 C138.334399,16.8528469 139.001363,16.8036446 139.755809,16.8036446 C140.433716,16.8036446 140.996809,16.8993157 141.445103,17.0906606 C141.893396,17.2820055 142.251479,17.5498844 142.519362,17.8943052 C142.787245,18.2387261 142.975854,18.6514782 143.085194,19.132574 C143.194534,19.6136698 143.249203,20.1439607 143.249203,20.7234624 L143.249203,25.5125285 L141.723918,25.5125285 L141.723918,21.0514806 C141.723918,20.5266489 141.688383,20.0783618 141.617312,19.7066059 C141.546241,19.3348501 141.428702,19.0341697 141.264692,18.8045558 C141.100683,18.5749419 140.882006,18.408201 140.608656,18.304328 C140.335306,18.2004551 139.996357,18.1485194 139.5918,18.1485194 C139.42779,18.1485194 139.258315,18.1539863 139.083371,18.1649203 C138.908427,18.1758543 138.741686,18.1895216 138.583144,18.2059226 C138.424601,18.2223235 138.282461,18.2414577 138.15672,18.2633257 C138.030979,18.2851937 137.940775,18.3015945 137.886105,18.3125285 L137.886105,25.5125285 L136.36082,25.5125285 L136.36082,17.2300683 Z M147.300228,25.5125285 L145.774943,25.5125285 L145.774943,16.9840547 L147.300228,16.9840547 L147.300228,25.5125285 Z M146.529385,15.442369 C146.256035,15.442369 146.023691,15.3521649 145.832346,15.171754 C145.641001,14.9913431 145.54533,14.7480653 145.54533,14.4419134 C145.54533,14.1357616 145.641001,13.8924838 145.832346,13.7120729 C146.023691,13.531662 146.256035,13.4414579 146.529385,13.4414579 C146.802735,13.4414579 147.035079,13.531662 147.226424,13.7120729 C147.417769,13.8924838 147.51344,14.1357616 147.51344,14.4419134 C147.51344,14.7480653 147.417769,14.9913431 147.226424,15.171754 C147.035079,15.3521649 146.802735,15.442369 146.529385,15.442369 Z M151.908884,24.4136674 C152.532122,24.4136674 152.994076,24.3316637 153.294761,24.1676538 C153.595446,24.0036438 153.745786,23.7412319 153.745786,23.38041 C153.745786,23.0086542 153.598179,22.7134407 153.302961,22.4947608 C153.007743,22.2760809 152.521188,22.0300697 151.84328,21.7567198 C151.51526,21.6255119 151.200913,21.4915724 150.900228,21.3548975 C150.599543,21.2182226 150.339864,21.0569485 150.121185,20.8710706 C149.902505,20.6851927 149.727563,20.4610491 149.596355,20.1986333 C149.465147,19.9362174 149.399544,19.6136693 149.399544,19.2309795 C149.399544,18.4765338 149.678357,17.8779065 150.235991,17.4350797 C150.793625,16.9922529 151.553526,16.7708428 152.515718,16.7708428 C152.756265,16.7708428 152.99681,16.7845101 153.237358,16.8118451 C153.477906,16.8391801 153.702049,16.8719816 153.909795,16.9102506 C154.117541,16.9485196 154.300683,16.9895214 154.459226,17.0332574 C154.617768,17.0769934 154.740774,17.1152618 154.828246,17.1480638 L154.549431,18.4601367 C154.385421,18.3726647 154.128476,18.2824606 153.778588,18.1895216 C153.4287,18.0965827 153.007747,18.0501139 152.515718,18.0501139 C152.089292,18.0501139 151.717541,18.1348511 151.400456,18.304328 C151.08337,18.4738049 150.924829,18.7389504 150.924829,19.0997722 C150.924829,19.2856501 150.960364,19.4496576 151.031435,19.5917995 C151.102506,19.7339415 151.211844,19.862414 151.359453,19.977221 C151.507062,20.0920279 151.690204,20.1986328 151.908884,20.2970387 C152.127564,20.3954447 152.389976,20.4993161 152.696128,20.608656 C153.100685,20.761732 153.461502,20.9120722 153.778588,21.0596811 C154.095674,21.20729 154.366286,21.3794979 154.590433,21.5763098 C154.81458,21.7731217 154.986788,22.0109325 155.107062,22.2897494 C155.227335,22.5685663 155.287472,22.9102485 155.287472,23.3148064 C155.287472,24.1020541 154.994992,24.6979479 154.410023,25.1025057 C153.825054,25.5070635 152.991349,25.7093394 151.908884,25.7093394 C151.154438,25.7093394 150.564011,25.6464699 150.137585,25.5207289 C149.71116,25.394988 149.421413,25.299317 149.268337,25.233713 L149.547153,23.9216401 C149.722097,23.9872441 150.000909,24.0856485 150.383599,24.2168565 C150.766289,24.3480644 151.274712,24.4136674 151.908884,24.4136674 Z M158.666059,16.9840547 L161.897039,16.9840547 L161.897039,18.2633257 L158.666059,18.2633257 L158.666059,22.1995444 C158.666059,22.6259702 158.698861,22.9785863 158.764465,23.2574032 C158.830069,23.5362201 158.928473,23.7548967 159.059681,23.9134396 C159.190889,24.0719826 159.354897,24.1840543 159.551708,24.2496583 C159.74852,24.3152623 159.978131,24.3480638 160.240547,24.3480638 C160.699775,24.3480638 161.068791,24.2961281 161.347608,24.1922551 C161.626425,24.0883822 161.820501,24.0145788 161.929841,23.9708428 L162.225057,25.233713 C162.071981,25.310251 161.804102,25.405922 161.421412,25.5207289 C161.038722,25.6355359 160.601369,25.6929385 160.109339,25.6929385 C159.529838,25.6929385 159.051483,25.6191351 158.67426,25.4715262 C158.297037,25.3239173 157.993623,25.1025072 157.764009,24.8072893 C157.534395,24.5120714 157.373121,24.1485215 157.280182,23.7166287 C157.187243,23.2847359 157.140774,22.7845131 157.140774,22.2159453 L157.140774,14.6059226 L158.666059,14.343508 L158.666059,16.9840547 Z M166.981321,16.8036446 C167.112529,16.8036446 167.262869,16.811845 167.432346,16.828246 C167.601823,16.844647 167.768564,16.8665147 167.932574,16.8938497 C168.096584,16.9211846 168.246924,16.9485192 168.383599,16.9758542 C168.520274,17.0031892 168.621412,17.0277903 168.687016,17.0496583 L168.424601,18.3781321 C168.304327,18.3343961 168.104785,18.2824604 167.825968,18.2223235 C167.547151,18.1621865 167.189068,18.1321185 166.751708,18.1321185 C166.467425,18.1321185 166.185878,18.1621865 165.907062,18.2223235 C165.628245,18.2824604 165.445103,18.3234623 165.357631,18.3453303 L165.357631,25.5125285 L163.832346,25.5125285 L163.832346,17.3448747 C164.193168,17.2136668 164.641455,17.0906612 165.177221,16.9758542 C165.712987,16.8610473 166.314347,16.8036446 166.981321,16.8036446 Z M173.049658,24.4136674 C173.41048,24.4136674 173.730295,24.4054671 174.009112,24.3890661 C174.287929,24.3726651 174.520272,24.342597 174.70615,24.298861 L174.70615,21.7567198 C174.59681,21.7020498 174.419136,21.6555811 174.173121,21.6173121 C173.927106,21.5790431 173.629159,21.5599089 173.279271,21.5599089 C173.049657,21.5599089 172.806379,21.5763096 172.549431,21.6091116 C172.292482,21.6419136 172.057404,21.7102501 171.844191,21.814123 C171.630978,21.917996 171.453304,22.0601358 171.311162,22.2405467 C171.16902,22.4209576 171.09795,22.6587685 171.09795,22.9539863 C171.09795,23.5006861 171.272891,23.8806367 171.622779,24.0938497 C171.972667,24.3070626 172.448289,24.4136674 173.049658,24.4136674 Z M172.918451,16.7708428 C173.530755,16.7708428 174.047378,16.8501131 174.468337,17.008656 C174.889296,17.167199 175.228245,17.3913425 175.485194,17.6810934 C175.742143,17.9708443 175.925284,18.31526 176.034624,18.7143508 C176.143964,19.1134416 176.198633,19.5535283 176.198633,20.0346241 L176.198633,25.3649203 C176.067425,25.3867883 175.884284,25.4168563 175.649203,25.4551253 C175.414122,25.4933943 175.148976,25.5289292 174.853759,25.5617312 C174.558541,25.5945332 174.238726,25.6246012 173.894305,25.6519362 C173.549884,25.6792712 173.208202,25.6929385 172.869248,25.6929385 C172.388152,25.6929385 171.945332,25.6437363 171.540774,25.5453303 C171.136217,25.4469243 170.786334,25.2911172 170.491116,25.0779043 C170.195898,24.8646914 169.966288,24.5831453 169.802278,24.2332574 C169.638268,23.8833695 169.556264,23.462417 169.556264,22.9703872 C169.556264,22.5002254 169.651935,22.0956737 169.84328,21.7567198 C170.034625,21.417766 170.294304,21.1444202 170.622323,20.9366743 C170.950343,20.7289283 171.333027,20.5758547 171.770387,20.4774487 C172.207747,20.3790428 172.666968,20.3298405 173.148064,20.3298405 C173.30114,20.3298405 173.45968,20.3380409 173.62369,20.3544419 C173.7877,20.3708429 173.943507,20.3927106 174.091116,20.4200456 C174.238725,20.4473805 174.367198,20.4719817 174.476538,20.4938497 C174.585878,20.5157176 174.662414,20.5321184 174.70615,20.5430524 L174.70615,20.1166287 C174.70615,19.8651468 174.678816,19.6164021 174.624146,19.3703872 C174.569476,19.1243723 174.471071,18.9056957 174.328929,18.7143508 C174.186787,18.5230059 173.992712,18.3699322 173.746697,18.2551253 C173.500682,18.1403183 173.180868,18.0829157 172.787244,18.0829157 C172.28428,18.0829157 171.844193,18.1184507 171.46697,18.1895216 C171.089748,18.2605926 170.808201,18.334396 170.622323,18.4109339 L170.441913,17.1480638 C170.638725,17.0605918 170.96674,16.9758546 171.425968,16.8938497 C171.885196,16.8118447 172.382685,16.7708428 172.918451,16.7708428 Z M180.151253,16.9840547 L183.382232,16.9840547 L183.382232,18.2633257 L180.151253,18.2633257 L180.151253,22.1995444 C180.151253,22.6259702 180.184054,22.9785863 180.249658,23.2574032 C180.315262,23.5362201 180.413667,23.7548967 180.544875,23.9134396 C180.676083,24.0719826 180.84009,24.1840543 181.036902,24.2496583 C181.233714,24.3152623 181.463324,24.3480638 181.72574,24.3480638 C182.184968,24.3480638 182.553985,24.2961281 182.832802,24.1922551 C183.111619,24.0883822 183.305694,24.0145788 183.415034,23.9708428 L183.710251,25.233713 C183.557175,25.310251 183.289296,25.405922 182.906606,25.5207289 C182.523916,25.6355359 182.086563,25.6929385 181.594533,25.6929385 C181.015031,25.6929385 180.536676,25.6191351 180.159453,25.4715262 C179.78223,25.3239173 179.478817,25.1025072 179.249203,24.8072893 C179.019589,24.5120714 178.858315,24.1485215 178.765376,23.7166287 C178.672437,23.2847359 178.625968,22.7845131 178.625968,22.2159453 L178.625968,14.6059226 L180.151253,14.343508 L180.151253,16.9840547 Z M192.615945,21.2482916 C192.615945,21.9261993 192.517541,22.5384938 192.320729,23.0851936 C192.123917,23.6318934 191.847838,24.1020481 191.492483,24.495672 C191.137128,24.8892958 190.713442,25.1927096 190.221412,25.4059226 C189.729383,25.6191355 189.193625,25.7257403 188.614123,25.7257403 C188.034621,25.7257403 187.498864,25.6191355 187.006834,25.4059226 C186.514804,25.1927096 186.091118,24.8892958 185.735763,24.495672 C185.380408,24.1020481 185.104329,23.6318934 184.907517,23.0851936 C184.710705,22.5384938 184.612301,21.9261993 184.612301,21.2482916 C184.612301,20.5813178 184.710705,19.9717567 184.907517,19.41959 C185.104329,18.8674232 185.380408,18.394535 185.735763,18.0009112 C186.091118,17.6072873 186.514804,17.3038735 187.006834,17.0906606 C187.498864,16.8774477 188.034621,16.7708428 188.614123,16.7708428 C189.193625,16.7708428 189.729383,16.8774477 190.221412,17.0906606 C190.713442,17.3038735 191.137128,17.6072873 191.492483,18.0009112 C191.847838,18.394535 192.123917,18.8674232 192.320729,19.41959 C192.517541,19.9717567 192.615945,20.5813178 192.615945,21.2482916 Z M191.025057,21.2482916 C191.025057,20.2861 190.809114,19.5234652 190.377221,18.9603645 C189.945328,18.3972637 189.357635,18.1157175 188.614123,18.1157175 C187.870611,18.1157175 187.282918,18.3972637 186.851025,18.9603645 C186.419132,19.5234652 186.203189,20.2861 186.203189,21.2482916 C186.203189,22.2104832 186.419132,22.9731179 186.851025,23.5362187 C187.282918,24.0993194 187.870611,24.3808656 188.614123,24.3808656 C189.357635,24.3808656 189.945328,24.0993194 190.377221,23.5362187 C190.809114,22.9731179 191.025057,22.2104832 191.025057,21.2482916 Z M197.91344,16.8036446 C198.044648,16.8036446 198.194988,16.811845 198.364465,16.828246 C198.533942,16.844647 198.700683,16.8665147 198.864692,16.8938497 C199.028702,16.9211846 199.179043,16.9485192 199.315718,16.9758542 C199.452392,17.0031892 199.55353,17.0277903 199.619134,17.0496583 L199.35672,18.3781321 C199.236446,18.3343961 199.036903,18.2824604 198.758087,18.2223235 C198.47927,18.1621865 198.121187,18.1321185 197.683827,18.1321185 C197.399543,18.1321185 197.117997,18.1621865 196.83918,18.2223235 C196.560363,18.2824604 196.377221,18.3234623 196.289749,18.3453303 L196.289749,25.5125285 L194.764465,25.5125285 L194.764465,17.3448747 C195.125287,17.2136668 195.573574,17.0906612 196.109339,16.9758542 C196.645105,16.8610473 197.246466,16.8036446 197.91344,16.8036446 Z" id="Systemadministrator" fill="#FFFFFF"></path>
            </g>
        </g>
    </g>
</svg>